/* XPM */
static char * C:\Users\apamm\Documents\folder_xpm[] = {
"16 16 11 1",
" 	c None",
".	c #000000",
"+	c #D3CD74",
"@	c #FFFFFF",
"#	c #D6CF67",
"$	c #C6BF54",
"%	c #B9B23F",
"&	c #A59D2A",
"*	c #8C851A",
"=	c #827B12",
"-	c #787328",
"                ",
"  ............. ",
" .+++++.@@@@@@@.",
".+++++++........",
".++++++++++++++.",
".++++++++++++++.",
".+++++++++++++#.",
".++++++++++++#$.",
".+++++++++++#$%.",
".++++++++++#$%&.",
".+++++++++#$%&*.",
".++++++++#$%&*=.",
".++++++++$%&*==.",
".+++++++#%&*==-.",
" .............. ",
"                "};
